Zone,IP
CLIENT,192.168.3.9
A1,192.168.3.10
B1,192.168.3.11
C1,192.168.3.12
A2,192.168.3.13
B2,192.168.3.14
C2,192.168.3.15
A3,192.168.3.16
B3,192.168.3.17
C3,192.168.3.18
A4,192.168.3.19
B4,192.168.3.20
C4,192.168.3.21
A5,192.168.3.22
B5,192.168.3.23
C5,192.168.3.24
A6,192.168.3.26
B6,192.168.3.27
C6,192.168.3.28
A7,192.168.3.29
B7,192.168.3.30
C7,192.168.3.31
